﻿add_namespace = confederates

country_event = {
	id = confederates.0
	title = confederates.0.t
	desc = confederates.0.d
	picture = GFX_report_event_german_speech
	fire_only_once = yes
	
	is_triggered_only = yes

	option = {
		name = confederates.0.a
		ai_chance = {factor = 100}
		start_civil_war = {
		ruling_party = fascism
		ideology = democratic
		size = 0.8
		only_own_territory = no
		capital = 361
		states = { 
        361 362 363 369 368
			}
		}
	}
}