
state={
	id=208
	name="STATE_208" # Luga
	manpower = 341819
	
	state_category = rural

	history={
		owner = SWE
		buildings = {
			infrastructure = 5
			air_base = 3
		}
		add_core_of = TZR
		add_core_of = SWE
	}

	provinces={
		104 126 181 3120 6139 6197 9097 9098 11032 11080 11139 11186 
	}
}
