
state={
	id=228
	name="STATE_228" # Voroshilovgrad
	manpower = 2167411
	
	state_category = town

	history={
		owner = ESU
		victory_points = {
			9461 1
		}
		buildings = {
			infrastructure = 5
		}
		add_core_of = ESU
	}

	provinces={
		523 547 570 6505 6519 9446 9461 9476 11487 11513 
	}
}
