
state={
	id=263
	name="STATE_263"
	manpower = 1092577
	
	state_category = town

	history={
		owner = TZR
		victory_points = {
			117 5 
		}
		buildings = {
			infrastructure = 8
			air_base = 8
			arms_factory = 8
			industrial_complex = 4
		}
		add_core_of = TZR
	}

	provinces={
		8 71 110 117 320 3089 6086 6154 6225 9212 9234 11072 11109 11191 
	}
}
