﻿capital = 195

#OOB = "ALB_1936"

set_technology = {
	infantry_weapons = 1
	tech_support = 1
	tech_recon = 1
}

set_politics = {

	parties = {
		democratic = { 
			popularity = 4
		}

		fascism = {
			popularity = 5
		}
		
		communism = {
			popularity = 0
		}
		
		neutrality = { 
			popularity = 91
		}
	}
	
	ruling_party = neutrality
	last_election = "1932.3.5"
	election_frequency = 48
	elections_allowed = no
}

set_convoys = 15

	set_autonomy = {
		target = CRM
		autonomous_state = autonomy_integrated_puppet
	}
	set_autonomy = {
		target = CSR 
		autonomous_state = autonomy_dominion
		freedom_level = 0.6
	}
	set_autonomy = {
		target = ESU
		autonomous_state = autonomy_dominion
		freedom_level = 0.4
	}
	set_autonomy = {
		target = WSU
		autonomous_state = autonomy_dominion
		freedom_level = 0.4
	}
	set_autonomy = {
		target = MNK
		autonomous_state = autonomy_dominion
		freedom_level = 0.2
	}
	set_autonomy = {
		target = SOV
		autonomous_state = autonomy_dominion
		freedom_level = 0.2
	}




create_field_marshal = {
	name = "Xhemal Aranitasi"
	portrait_path = "gfx/leaders/Europe/Portrait_Europe_Generic_land_3.dds"
	traits = { }
	skill = 2
	attack_skill = 1
    defense_skill = 3
    planning_skill = 2
    logistics_skill = 1
}

