﻿division_template = {
	name = "Infantry Division"			
	division_names_group = GQU_INF_01

	regiments = {
		infantry = { x = 0 y = 0 }
		infantry = { x = 0 y = 1 }
		infantry = { x = 0 y = 2 }
        infantry = { x = 1 y = 0 }
		infantry = { x = 1 y = 1 }
		infantry = { x = 1 y = 2 }
        infantry = { x = 2 y = 0 }
	}
}



units = {
	division= {	# "1st montreal guard"
		division_name = {
			is_name_ordered = yes
			name_order = 1
		}
		location = 4345
		division_template = "Infantry Division"		
		start_experience_factor = 0.3
		start_equipment_factor = 1.0

	}
	division= {	# "1st quebec infantry"
		division_name = {
			is_name_ordered = yes
			name_order = 2
		}
		location = 12205
		division_template = "Infantry Division"		
		start_experience_factor = 0.3
		start_equipment_factor = 0.8

	}
	division= {	# "1st militia"
		division_name = {
			is_name_ordered = yes
			name_order = 3
		}
		location = 6510
		division_template = "Infantry Division"		
		start_experience_factor = 0.3
		start_equipment_factor = 0.8

	}
	division= {	# "2nd militia"
		division_name = {
			is_name_ordered = yes
			name_order = 4
		}
		location = 7875
		division_template = "Infantry Division"		
		start_experience_factor = 0.3
		start_equipment_factor = 0.8

	}
	division= {	# "3rd militia"
		division_name = {
			is_name_ordered = yes
			name_order = 5
		}
		location = 3769
		division_template = "Infantry Division"		
		start_experience_factor = 0.3
		start_equipment_factor = 0.8

	}
	division= {	# "4th militia"
		division_name = {
			is_name_ordered = yes
			name_order = 6
		}
		location = 11902
		division_template = "Infantry Division"		
		start_experience_factor = 0.3
		start_equipment_factor = 0.8

	}
}
